{
  "system": {
    "busybox-0": {
      "dockerimg": "busybox:uclibc",
      "cron":{
        "hourly":"echo hourly",
        "daily":"echo daily",
        "weekly":"echo weeky",
        "monthly":"echo monthly"
      }
    }
  }
}
